%YAML 1.1
%TAG !u! tag:unity3d.com,2011:
--- !u!74 &7400000
AnimationClip:
  m_ObjectHideFlags: 0
  m_PrefabParentObject: {fileID: 0}
  m_PrefabInternal: {fileID: 0}
  m_Name: turretDeath
  serializedVersion: 6
  m_Legacy: 0
  m_Compressed: 0
  m_UseHighQualityCurve: 1
  m_RotationCurves: []
  m_CompressedRotationCurves: []
  m_EulerCurves: []
  m_PositionCurves: []
  m_ScaleCurves: []
  m_FloatCurves: []
  m_PPtrCurves:
  - curve:
    - time: 0
      value: {fileID: 21300000, guid: 75d3ce5794ece7a429b5a85bc321b9c2, type: 3}
    - time: 0.1
      value: {fileID: 21300000, guid: 822c8346e6485784ea4478d918d223f6, type: 3}
    - time: 0.2
      value: {fileID: 21300000, guid: 84d9434a6f796064b83b9a323a502f42, type: 3}
    - time: 0.3
      value: {fileID: 21300000, guid: f07e5b4810d4b0a4a9f2706cde02e109, type: 3}
    - time: 0.4
      value: {fileID: 21300000, guid: 071e8aa2f8b0a9046b471e4602b4b0c3, type: 3}
    - time: 0.5
      value: {fileID: 21300000, guid: fd44fdba60d6f4b41bc174f9052b74ae, type: 3}
    - time: 0.6
      value: {fileID: 21300000, guid: 1385a5fd4babc9d45ab8b72ef35f2767, type: 3}
    - time: 0.70000005
      value: {fileID: 21300000, guid: 8758da069df38764788e86a34579e1d0, type: 3}
    - time: 0.8000001
      value: {fileID: 21300000, guid: b39d8dde1f135a2488fea8959a8ce58c, type: 3}
    - time: 0.9000001
      value: {fileID: 21300000, guid: 0759b68f3d57b7849b2e132c231b0cad, type: 3}
    - time: 1.0000001
      value: {fileID: 21300000, guid: 9c749147537f07b45835236051095860, type: 3}
    - time: 1.1000001
      value: {fileID: 21300000, guid: de5959e0f929eec4090bdc8b5db6ed2e, type: 3}
    - time: 1.2000002
      value: {fileID: 21300000, guid: 3b0ab99d65ac7fa499e8e3b75db8a04b, type: 3}
    - time: 1.3000002
      value: {fileID: 21300000, guid: 1b523e5437b5c8244bfc9337b03ba406, type: 3}
    - time: 1.4000002
      value: {fileID: 21300000, guid: df917abf2d2a8e545bb1500d868d805d, type: 3}
    - time: 1.5000002
      value: {fileID: 21300000, guid: 9a27301b683fb7c46bfc3f844d7bb7aa, type: 3}
    - time: 1.6000003
      value: {fileID: 21300000, guid: 6290bebc150efaf4f8c44ebe043bae85, type: 3}
    - time: 1.7000003
      value: {fileID: 21300000, guid: f9060c284d59d2e4490ae51347b318ee, type: 3}
    attribute: m_Sprite
    path: Graphic
    classID: 212
    script: {fileID: 0}
  m_SampleRate: 10
  m_WrapMode: 0
  m_Bounds:
    m_Center: {x: 0, y: 0, z: 0}
    m_Extent: {x: 0, y: 0, z: 0}
  m_ClipBindingConstant:
    genericBindings:
    - serializedVersion: 2
      path: 3003628726
      attribute: 0
      script: {fileID: 0}
      typeID: 212
      customType: 23
      isPPtrCurve: 1
    pptrCurveMapping:
    - {fileID: 21300000, guid: 75d3ce5794ece7a429b5a85bc321b9c2, type: 3}
    - {fileID: 21300000, guid: 822c8346e6485784ea4478d918d223f6, type: 3}
    - {fileID: 21300000, guid: 84d9434a6f796064b83b9a323a502f42, type: 3}
    - {fileID: 21300000, guid: f07e5b4810d4b0a4a9f2706cde02e109, type: 3}
    - {fileID: 21300000, guid: 071e8aa2f8b0a9046b471e4602b4b0c3, type: 3}
    - {fileID: 21300000, guid: fd44fdba60d6f4b41bc174f9052b74ae, type: 3}
    - {fileID: 21300000, guid: 1385a5fd4babc9d45ab8b72ef35f2767, type: 3}
    - {fileID: 21300000, guid: 8758da069df38764788e86a34579e1d0, type: 3}
    - {fileID: 21300000, guid: b39d8dde1f135a2488fea8959a8ce58c, type: 3}
    - {fileID: 21300000, guid: 0759b68f3d57b7849b2e132c231b0cad, type: 3}
    - {fileID: 21300000, guid: 9c749147537f07b45835236051095860, type: 3}
    - {fileID: 21300000, guid: de5959e0f929eec4090bdc8b5db6ed2e, type: 3}
    - {fileID: 21300000, guid: 3b0ab99d65ac7fa499e8e3b75db8a04b, type: 3}
    - {fileID: 21300000, guid: 1b523e5437b5c8244bfc9337b03ba406, type: 3}
    - {fileID: 21300000, guid: df917abf2d2a8e545bb1500d868d805d, type: 3}
    - {fileID: 21300000, guid: 9a27301b683fb7c46bfc3f844d7bb7aa, type: 3}
    - {fileID: 21300000, guid: 6290bebc150efaf4f8c44ebe043bae85, type: 3}
    - {fileID: 21300000, guid: f9060c284d59d2e4490ae51347b318ee, type: 3}
  m_AnimationClipSettings:
    serializedVersion: 2
    m_AdditiveReferencePoseClip: {fileID: 0}
    m_AdditiveReferencePoseTime: 0
    m_StartTime: 0
    m_StopTime: 1.8000003
    m_OrientationOffsetY: 0
    m_Level: 0
    m_CycleOffset: 0
    m_HasAdditiveReferencePose: 0
    m_LoopTime: 0
    m_LoopBlend: 0
    m_LoopBlendOrientation: 0
    m_LoopBlendPositionY: 0
    m_LoopBlendPositionXZ: 0
    m_KeepOriginalOrientation: 0
    m_KeepOriginalPositionY: 1
    m_KeepOriginalPositionXZ: 0
    m_HeightFromFeet: 0
    m_Mirror: 0
  m_EditorCurves: []
  m_EulerEditorCurves: []
  m_HasGenericRootTransform: 0
  m_HasMotionFloatCurves: 0
  m_GenerateMotionCurves: 0
  m_Events: []
